/home/nuvi/Workspace/personal-projects/connect-people-fork/backend/src/main/java/org/caxineirosdegema/connectingpeople/DTO/Converters/DtoToEvent.java
/home/nuvi/Workspace/personal-projects/connect-people-fork/backend/src/main/java/org/caxineirosdegema/connectingpeople/persistence/model/Event.java
/home/nuvi/Workspace/personal-projects/connect-people-fork/backend/src/main/java/org/caxineirosdegema/connectingpeople/services/AuthenticationService.java
/home/nuvi/Workspace/personal-projects/connect-people-fork/backend/src/main/java/org/caxineirosdegema/connectingpeople/persistence/dao/UserDao.java
/home/nuvi/Workspace/personal-projects/connect-people-fork/backend/src/main/java/org/caxineirosdegema/connectingpeople/persistence/dao/Dao.java
/home/nuvi/Workspace/personal-projects/connect-people-fork/backend/src/main/java/org/caxineirosdegema/connectingpeople/services/EventServiceIMPL.java
/home/nuvi/Workspace/personal-projects/connect-people-fork/backend/src/main/java/org/caxineirosdegema/connectingpeople/DTO/UserDTO.java
/home/nuvi/Workspace/personal-projects/connect-people-fork/backend/src/main/java/org/caxineirosdegema/connectingpeople/DTO/Converters/AbstractConverter.java
/home/nuvi/Workspace/personal-projects/connect-people-fork/backend/src/main/java/org/caxineirosdegema/connectingpeople/persistence/model/Model.java
/home/nuvi/Workspace/personal-projects/connect-people-fork/backend/src/main/java/org/caxineirosdegema/connectingpeople/persistence/dao/EventDao.java
/home/nuvi/Workspace/personal-projects/connect-people-fork/backend/src/main/java/org/caxineirosdegema/connectingpeople/persistence/dao/jpa/GenericJpaDao.java
/home/nuvi/Workspace/personal-projects/connect-people-fork/backend/src/main/java/org/caxineirosdegema/connectingpeople/persistence/model/User.java
/home/nuvi/Workspace/personal-projects/connect-people-fork/backend/src/main/java/org/caxineirosdegema/connectingpeople/persistence/dao/jpa/JpaUserDao.java
/home/nuvi/Workspace/personal-projects/connect-people-fork/backend/src/main/java/org/caxineirosdegema/connectingpeople/services/UserServiceIMPL.java
/home/nuvi/Workspace/personal-projects/connect-people-fork/backend/src/main/java/org/caxineirosdegema/connectingpeople/services/AuthenticationServiceIMPL.java
/home/nuvi/Workspace/personal-projects/connect-people-fork/backend/src/main/java/org/caxineirosdegema/connectingpeople/services/UserService.java
/home/nuvi/Workspace/personal-projects/connect-people-fork/backend/src/main/java/org/caxineirosdegema/connectingpeople/DTO/EventDTO.java
/home/nuvi/Workspace/personal-projects/connect-people-fork/backend/src/main/java/org/caxineirosdegema/connectingpeople/DTO/Converters/DtoToUser.java
/home/nuvi/Workspace/personal-projects/connect-people-fork/backend/src/main/java/org/caxineirosdegema/connectingpeople/persistence/model/AbstractModel.java
/home/nuvi/Workspace/personal-projects/connect-people-fork/backend/src/main/java/org/caxineirosdegema/connectingpeople/DTO/Converters/UserToDto.java
/home/nuvi/Workspace/personal-projects/connect-people-fork/backend/src/main/java/org/caxineirosdegema/connectingpeople/DTO/Converters/EventToDto.java
/home/nuvi/Workspace/personal-projects/connect-people-fork/backend/src/main/java/org/caxineirosdegema/connectingpeople/services/EventService.java
/home/nuvi/Workspace/personal-projects/connect-people-fork/backend/src/main/java/org/caxineirosdegema/connectingpeople/persistence/dao/jpa/JpaEventDao.java
/home/nuvi/Workspace/personal-projects/connect-people-fork/backend/src/main/java/org/caxineirosdegema/connectingpeople/controller/rest/RestAPIController.java
